simulation/qsim/LogicalStep_Lab3.msim.vcd
$comment
	File created using the following command:
		vcd file LogicalStep_Lab3.msim.vcd -direction
$end
$date
	Wed Jun 26 21:46:15 2024
$end
$version
	ModelSim Version 10.5b
$end
$timescale
	1ps
$end

$scope module logicalstep_lab3_top_vhd_vec_tst $end
$var wire 1 ! clkin_50 $end
$var wire 1 " leds [7] $end
$var wire 1 # leds [6] $end
$var wire 1 $ leds [5] $end
$var wire 1 % leds [4] $end
$var wire 1 & leds [3] $end
$var wire 1 ' leds [2] $end
$var wire 1 ( leds [1] $end
$var wire 1 ) leds [0] $end
$var wire 1 * pb_n [3] $end
$var wire 1 + pb_n [2] $end
$var wire 1 , pb_n [1] $end
$var wire 1 - pb_n [0] $end
$var wire 1 . seg7_char1 $end
$var wire 1 / seg7_char2 $end
$var wire 1 0 seg7_data [6] $end
$var wire 1 1 seg7_data [5] $end
$var wire 1 2 seg7_data [4] $end
$var wire 1 3 seg7_data [3] $end
$var wire 1 4 seg7_data [2] $end
$var wire 1 5 seg7_data [1] $end
$var wire 1 6 seg7_data [0] $end
$var wire 1 7 sw [7] $end
$var wire 1 8 sw [6] $end
$var wire 1 9 sw [5] $end
$var wire 1 : sw [4] $end
$var wire 1 ; sw [3] $end
$var wire 1 < sw [2] $end
$var wire 1 = sw [1] $end
$var wire 1 > sw [0] $end

$scope module i1 $end
$var wire 1 ? gnd $end
$var wire 1 @ vcc $end
$var wire 1 A unknown $end
$var wire 1 B devoe $end
$var wire 1 C devclrn $end
$var wire 1 D devpor $end
$var wire 1 E ww_devoe $end
$var wire 1 F ww_devclrn $end
$var wire 1 G ww_devpor $end
$var wire 1 H ww_clkin_50 $end
$var wire 1 I ww_pb_n [3] $end
$var wire 1 J ww_pb_n [2] $end
$var wire 1 K ww_pb_n [1] $end
$var wire 1 L ww_pb_n [0] $end
$var wire 1 M ww_sw [7] $end
$var wire 1 N ww_sw [6] $end
$var wire 1 O ww_sw [5] $end
$var wire 1 P ww_sw [4] $end
$var wire 1 Q ww_sw [3] $end
$var wire 1 R ww_sw [2] $end
$var wire 1 S ww_sw [1] $end
$var wire 1 T ww_sw [0] $end
$var wire 1 U ww_leds [7] $end
$var wire 1 V ww_leds [6] $end
$var wire 1 W ww_leds [5] $end
$var wire 1 X ww_leds [4] $end
$var wire 1 Y ww_leds [3] $end
$var wire 1 Z ww_leds [2] $end
$var wire 1 [ ww_leds [1] $end
$var wire 1 \ ww_leds [0] $end
$var wire 1 ] ww_seg7_data [6] $end
$var wire 1 ^ ww_seg7_data [5] $end
$var wire 1 _ ww_seg7_data [4] $end
$var wire 1 ` ww_seg7_data [3] $end
$var wire 1 a ww_seg7_data [2] $end
$var wire 1 b ww_seg7_data [1] $end
$var wire 1 c ww_seg7_data [0] $end
$var wire 1 d ww_seg7_char1 $end
$var wire 1 e ww_seg7_char2 $end
$var wire 1 f \pb_n[1]~input_o\ $end
$var wire 1 g \pb_n[2]~input_o\ $end
$var wire 1 h \pb_n[3]~input_o\ $end
$var wire 1 i \seg7_data[1]~output_o\ $end
$var wire 1 j \seg7_data[5]~output_o\ $end
$var wire 1 k \seg7_data[6]~output_o\ $end
$var wire 1 l \leds[0]~output_o\ $end
$var wire 1 m \leds[1]~output_o\ $end
$var wire 1 n \leds[2]~output_o\ $end
$var wire 1 o \leds[3]~output_o\ $end
$var wire 1 p \leds[4]~output_o\ $end
$var wire 1 q \leds[5]~output_o\ $end
$var wire 1 r \leds[6]~output_o\ $end
$var wire 1 s \leds[7]~output_o\ $end
$var wire 1 t \seg7_data[0]~output_o\ $end
$var wire 1 u \seg7_data[2]~output_o\ $end
$var wire 1 v \seg7_data[3]~output_o\ $end
$var wire 1 w \seg7_data[4]~output_o\ $end
$var wire 1 x \seg7_char1~output_o\ $end
$var wire 1 y \seg7_char2~output_o\ $end
$var wire 1 z \sw[0]~input_o\ $end
$var wire 1 { \sw[1]~input_o\ $end
$var wire 1 | \sw[2]~input_o\ $end
$var wire 1 } \sw[3]~input_o\ $end
$var wire 1 ~ \inst1|Mux5~0_combout\ $end
$var wire 1 !! \sw[4]~input_o\ $end
$var wire 1 "! \sw[5]~input_o\ $end
$var wire 1 #! \sw[6]~input_o\ $end
$var wire 1 $! \sw[7]~input_o\ $end
$var wire 1 %! \inst2|Mux5~0_combout\ $end
$var wire 1 &! \clkin_50~input_o\ $end
$var wire 1 '! \inst3|clk_proc:COUNT[0]~0_combout\ $end
$var wire 1 (! \inst3|clk_proc:COUNT[0]~q\ $end
$var wire 1 )! \inst3|clk_proc:COUNT[1]~1_combout\ $end
$var wire 1 *! \inst3|clk_proc:COUNT[1]~q\ $end
$var wire 1 +! \inst3|clk_proc:COUNT[1]~2\ $end
$var wire 1 ,! \inst3|clk_proc:COUNT[2]~1_combout\ $end
$var wire 1 -! \inst3|clk_proc:COUNT[2]~q\ $end
$var wire 1 .! \inst3|clk_proc:COUNT[2]~2\ $end
$var wire 1 /! \inst3|clk_proc:COUNT[3]~1_combout\ $end
$var wire 1 0! \inst3|clk_proc:COUNT[3]~q\ $end
$var wire 1 1! \inst3|clk_proc:COUNT[3]~2\ $end
$var wire 1 2! \inst3|clk_proc:COUNT[4]~1_combout\ $end
$var wire 1 3! \inst3|clk_proc:COUNT[4]~q\ $end
$var wire 1 4! \inst3|clk_proc:COUNT[4]~2\ $end
$var wire 1 5! \inst3|clk_proc:COUNT[5]~1_combout\ $end
$var wire 1 6! \inst3|clk_proc:COUNT[5]~q\ $end
$var wire 1 7! \inst3|clk_proc:COUNT[5]~2\ $end
$var wire 1 8! \inst3|clk_proc:COUNT[6]~1_combout\ $end
$var wire 1 9! \inst3|clk_proc:COUNT[6]~q\ $end
$var wire 1 :! \inst3|clk_proc:COUNT[6]~2\ $end
$var wire 1 ;! \inst3|clk_proc:COUNT[7]~1_combout\ $end
$var wire 1 <! \inst3|clk_proc:COUNT[7]~q\ $end
$var wire 1 =! \inst3|clk_proc:COUNT[7]~2\ $end
$var wire 1 >! \inst3|clk_proc:COUNT[8]~1_combout\ $end
$var wire 1 ?! \inst3|clk_proc:COUNT[8]~q\ $end
$var wire 1 @! \inst3|clk_proc:COUNT[8]~2\ $end
$var wire 1 A! \inst3|clk_proc:COUNT[9]~1_combout\ $end
$var wire 1 B! \inst3|clk_proc:COUNT[9]~q\ $end
$var wire 1 C! \inst3|clk_proc:COUNT[9]~2\ $end
$var wire 1 D! \inst3|clk_proc:COUNT[10]~1_combout\ $end
$var wire 1 E! \inst3|clk_proc:COUNT[10]~q\ $end
$var wire 1 F! \inst3|DOUT_TEMP[1]~0_combout\ $end
$var wire 1 G! \inst1|Mux1~0_combout\ $end
$var wire 1 H! \inst2|Mux1~0_combout\ $end
$var wire 1 I! \inst3|DOUT_TEMP[5]~1_combout\ $end
$var wire 1 J! \inst1|Mux0~0_combout\ $end
$var wire 1 K! \inst2|Mux0~0_combout\ $end
$var wire 1 L! \inst3|DOUT_TEMP[6]~2_combout\ $end
$var wire 1 M! \pb_n[0]~input_o\ $end
$var wire 1 N! \inst5|sreg~12_combout\ $end
$var wire 1 O! \inst5|sreg~14_combout\ $end
$var wire 1 P! \inst5|sreg~11_combout\ $end
$var wire 1 Q! \inst5|sreg~5_combout\ $end
$var wire 1 R! \inst5|sreg~10_combout\ $end
$var wire 1 S! \inst5|sreg~9_combout\ $end
$var wire 1 T! \inst5|sreg~8_combout\ $end
$var wire 1 U! \inst5|sreg~7_combout\ $end
$var wire 1 V! \inst5|sreg~6_combout\ $end
$var wire 1 W! \inst5|sreg~4_combout\ $end
$var wire 1 X! \inst5|sreg~13_combout\ $end
$var wire 1 Y! \inst1|Mux6~0_combout\ $end
$var wire 1 Z! \inst2|Mux6~0_combout\ $end
$var wire 1 [! \inst3|DOUT[0]~0_combout\ $end
$var wire 1 \! \inst1|Mux4~0_combout\ $end
$var wire 1 ]! \inst2|Mux4~0_combout\ $end
$var wire 1 ^! \inst3|DOUT[2]~2_combout\ $end
$var wire 1 _! \inst1|Mux3~0_combout\ $end
$var wire 1 `! \inst2|Mux3~0_combout\ $end
$var wire 1 a! \inst3|DOUT[3]~3_combout\ $end
$var wire 1 b! \inst1|Mux2~0_combout\ $end
$var wire 1 c! \inst2|Mux2~0_combout\ $end
$var wire 1 d! \inst3|DOUT[4]~4_combout\ $end
$var wire 1 e! \inst5|sreg\ [7] $end
$var wire 1 f! \inst5|sreg\ [6] $end
$var wire 1 g! \inst5|sreg\ [5] $end
$var wire 1 h! \inst5|sreg\ [4] $end
$var wire 1 i! \inst5|sreg\ [3] $end
$var wire 1 j! \inst5|sreg\ [2] $end
$var wire 1 k! \inst5|sreg\ [1] $end
$var wire 1 l! \inst5|sreg\ [0] $end
$var wire 1 m! \inst3|ALT_INV_DOUT[4]~4_combout\ $end
$var wire 1 n! \inst3|ALT_INV_DOUT[3]~3_combout\ $end
$var wire 1 o! \inst3|ALT_INV_DOUT[2]~2_combout\ $end
$var wire 1 p! \inst3|ALT_INV_DOUT[0]~0_combout\ $end
$var wire 1 q! \inst3|ALT_INV_clk_proc:COUNT[10]~q\ $end
$upscope $end
$upscope $end
$enddefinitions $end
#0
$dumpvars
0!
1.
0/
0?
1@
xA
1B
1C
1D
1E
1F
1G
0H
1d
0e
xf
xg
xh
zi
zj
zk
0l
0m
0n
0o
0p
0q
0r
0s
xt
xu
xv
xw
1x
0y
1z
1{
x|
x}
x~
x!!
x"!
x#!
x$!
x%!
0&!
1'!
0(!
0)!
0*!
0+!
0,!
0-!
1.!
0/!
00!
01!
02!
03!
14!
05!
06!
07!
08!
09!
1:!
0;!
0<!
0=!
0>!
0?!
1@!
0A!
0B!
0C!
0D!
0E!
xF!
xG!
xH!
xI!
xJ!
xK!
xL!
0M!
0N!
0O!
0P!
1Q!
0R!
0S!
0T!
0U!
0V!
0W!
0X!
xY!
xZ!
x[!
x\!
x]!
x^!
x_!
x`!
xa!
xb!
xc!
xd!
xm!
xn!
xo!
xp!
1q!
x*
x+
x,
0-
x7
x8
x9
x:
x;
x<
1=
1>
xI
xJ
xK
0L
xM
xN
xO
xP
xQ
xR
1S
1T
0U
0V
0W
0X
0Y
0Z
0[
0\
z]
z^
x_
x`
xa
zb
xc
0e!
0f!
0g!
0h!
0i!
0j!
0k!
0l!
0"
0#
0$
0%
0&
0'
0(
0)
z0
z1
x2
x3
x4
z5
x6
$end
#10000
1!
1H
1&!
1(!
0'!
1)!
#20000
0!
0H
0&!
#30000
1!
1H
1&!
0(!
1*!
1'!
#40000
0!
0H
0&!
#50000
1!
1H
1&!
1(!
0'!
0)!
1+!
1,!
#60000
0!
0H
0&!
#70000
1!
1H
1&!
0(!
0*!
1-!
0,!
0.!
1'!
0+!
1,!
1.!
1/!
0/!
#80000
0!
1-
0H
1L
1M!
0&!
1N!
1O!
#90000
1!
1H
1&!
1(!
1e!
1s
1P!
0'!
1)!
1U
1"
#100000
0!
0H
0&!
#110000
1!
1H
1&!
0(!
1*!
1f!
1r
1R!
1'!
1V
1#
#120000
0!
0H
0&!
#130000
1!
1H
1&!
1(!
1g!
1q
1S!
0'!
0)!
1+!
1W
0,!
0.!
1$
1/!
#140000
0!
0H
0&!
#150000
1!
1H
1&!
0(!
0*!
0-!
10!
1h!
1p
1T!
0/!
11!
1,!
1.!
1'!
0+!
1X
0,!
1/!
01!
12!
1%
02!
#160000
0!
0H
0&!
#170000
1!
1H
1&!
1(!
1i!
1o
1U!
0'!
1)!
1Y
1&
#180000
0!
0H
0&!
#190000
1!
1H
1&!
0(!
1*!
1j!
1n
1V!
1'!
1Z
1'
#200000
0!
0H
0&!
#210000
1!
1H
1&!
1(!
1k!
1m
1W!
0'!
0)!
1+!
1[
1,!
1X!
1(
#220000
0!
0H
0&!
#230000
1!
1H
1&!
0(!
0*!
1-!
1l!
1l
0,!
0.!
1'!
0+!
1\
1,!
1.!
0/!
11!
1)
12!
1/!
01!
02!
#240000
0!
0=
0H
0S
0{
0&!
0W!
0\!
0X!
#250000
1!
1H
1&!
1(!
0l!
0l
0V!
0'!
1)!
0\
0)
#260000
0!
0H
0&!
#270000
1!
1H
1&!
0(!
1*!
0k!
0m
0U!
1'!
0[
0(
#280000
0!
0H
0&!
#290000
1!
1H
1&!
1(!
0j!
0n
0T!
0'!
0)!
1+!
0Z
0,!
0.!
0'
0/!
11!
12!
#300000
0!
0H
0&!
#310000
1!
1H
1&!
0(!
0*!
0-!
00!
13!
0i!
0o
0S!
02!
04!
1/!
01!
1,!
1.!
1'!
0+!
0Y
0,!
0/!
12!
14!
15!
0&
05!
#320000
0!
0H
0&!
#330000
1!
1H
1&!
1(!
0h!
0p
0R!
0'!
1)!
0X
0%
#340000
0!
0H
0&!
#350000
1!
1H
1&!
0(!
1*!
0g!
0q
0P!
1'!
0W
0$
#360000
0!
0H
0&!
#370000
1!
1H
1&!
1(!
0f!
0r
0N!
0'!
0)!
1+!
0V
1,!
0O!
0#
#380000
0!
0H
0&!
#390000
1!
1H
1&!
0(!
0*!
1-!
0e!
0s
0,!
0.!
1'!
0+!
0U
1,!
1.!
1/!
0"
0/!
#400000
0!
0H
0&!
#410000
1!
1H
1&!
1(!
0'!
1)!
#420000
0!
1=
0H
1S
1{
0&!
1N!
x\!
1O!
#430000
1!
1H
1&!
0(!
1*!
1e!
1s
1P!
1'!
1U
1"
#440000
0!
0H
0&!
#450000
1!
1H
1&!
1(!
1f!
1r
1R!
0'!
0)!
1+!
1V
0,!
0.!
1#
1/!
#460000
0!
0H
0&!
#470000
1!
1H
1&!
0(!
0*!
0-!
10!
1g!
1q
1S!
0/!
11!
1,!
1.!
1'!
0+!
1W
0,!
1/!
01!
02!
04!
1$
15!
12!
14!
05!
#480000
0!
0H
0&!
#490000
1!
1H
1&!
1(!
1h!
1p
1T!
0'!
1)!
1X
1%
#500000
0!
0H
0&!
#510000
1!
1H
1&!
0(!
1*!
1i!
1o
1U!
1'!
1Y
1&
#520000
0!
0H
0&!
#530000
1!
1H
1&!
1(!
1j!
1n
1V!
0'!
0)!
1+!
1Z
1,!
1'
#540000
0!
0H
0&!
#550000
1!
1H
1&!
0(!
0*!
1-!
1k!
1m
1W!
0,!
0.!
1'!
0+!
1[
1,!
1.!
0/!
11!
1X!
1(
02!
04!
1/!
01!
12!
14!
15!
05!
#560000
0!
0H
0&!
#570000
1!
1H
1&!
1(!
1l!
1l
0'!
1)!
1\
1)
#580000
0!
0=
0H
0S
0{
0&!
0W!
0\!
0X!
#590000
1!
1H
1&!
0(!
1*!
0l!
0l
0V!
1'!
0\
0)
#600000
0!
0H
0&!
#610000
1!
1H
1&!
1(!
0k!
0m
0U!
0'!
0)!
1+!
0[
0,!
0.!
0(
0/!
11!
02!
04!
15!
#620000
0!
0H
0&!
#630000
1!
1H
1&!
0(!
0*!
0-!
00!
03!
16!
0j!
0n
0T!
05!
17!
12!
14!
1/!
01!
1,!
1.!
1'!
0+!
0Z
0,!
0/!
02!
15!
07!
18!
0'
08!
#640000
0!
0>
0H
0T
0z
0&!
0N!
0Q!
x\!
#650000
1!
1H
1&!
1(!
0'!
1)!
#660000
0!
0H
0&!
#670000
1!
1H
1&!
0(!
1*!
1'!
#680000
0!
0H
0&!
#690000
1!
1H
1&!
1(!
0'!
0)!
1+!
1,!
#700000
0!
0H
0&!
#710000
1!
1H
1&!
0(!
0*!
1-!
0,!
0.!
1'!
0+!
1,!
1.!
1/!
0/!
#720000
0!
0H
0&!
#730000
1!
1H
1&!
1(!
0'!
1)!
#740000
0!
0H
0&!
#750000
1!
1H
1&!
0(!
1*!
1'!
#760000
0!
1>
0H
1T
1z
0&!
1N!
0O!
1Q!
0\!
1O!
#770000
1!
1H
1&!
1(!
0i!
0o
0S!
0'!
0)!
1+!
0Y
0,!
0.!
0&
1/!
#780000
0!
0H
0&!
#790000
1!
1H
1&!
0(!
0*!
0-!
10!
0h!
0p
0R!
0/!
11!
1,!
1.!
1'!
0+!
0X
0,!
1/!
01!
12!
0%
02!
#800000
0!
0H
0&!
#810000
1!
1H
1&!
1(!
0g!
0q
0P!
0'!
1)!
0W
0$
#820000
0!
0H
0&!
#830000
1!
1H
1&!
0(!
1*!
0f!
0r
0N!
1'!
0V
0O!
0#
#840000
0!
0H
0&!
#850000
1!
1H
1&!
1(!
0e!
0s
0'!
0)!
1+!
0U
1,!
0"
#860000
0!
0H
0&!
#870000
1!
1H
1&!
0(!
0*!
1-!
0,!
0.!
1'!
0+!
1,!
1.!
0/!
11!
12!
1/!
01!
02!
#880000
0!
0H
0&!
#890000
1!
1H
1&!
1(!
0'!
1)!
#900000
0!
0H
0&!
#910000
1!
1H
1&!
0(!
1*!
1'!
#920000
0!
0H
0&!
#930000
1!
1H
1&!
1(!
0'!
0)!
1+!
0,!
0.!
0/!
11!
12!
#940000
0!
0H
0&!
#950000
1!
1H
1&!
0(!
0*!
0-!
00!
13!
02!
04!
1/!
01!
1,!
1.!
1'!
0+!
0,!
0/!
12!
14!
05!
17!
18!
15!
07!
08!
#960000
0!
0H
0&!
#970000
1!
1H
1&!
1(!
0'!
1)!
#980000
0!
0H
0&!
#990000
1!
1H
1&!
0(!
1*!
1'!
